/home/e20190010271/Bureau/L3/Genie Logiciel/term1/src/test/java/um/fds/agl/ter22/testTeacherRepository.java
/home/e20190010271/Bureau/L3/Genie Logiciel/term1/src/test/java/seleniumTests/BaseForTests.java
/home/e20190010271/Bureau/L3/Genie Logiciel/term1/src/test/java/um/fds/agl/ter22/Ter22ApplicationTests.java
/home/e20190010271/Bureau/L3/Genie Logiciel/term1/src/test/java/seleniumTests/testLoginTeacher.java
/home/e20190010271/Bureau/L3/Genie Logiciel/term1/src/test/java/um/fds/agl/ter22/mockTeacherService.java
/home/e20190010271/Bureau/L3/Genie Logiciel/term1/src/test/java/um/fds/agl/ter22/testTeacherController.java
/home/e20190010271/Bureau/L3/Genie Logiciel/term1/src/test/java/seleniumTests/loginTest.java
